151574 613224 470
225356 317948 443
107374 181601 383
802382 901619 525
207368 332932 443
85620 103024 341
347763 903448 525
119199 287744 443
134325 142664 375
390787 487118 449
185567 568727 470
890292 903700 401
78092 338462 443
50836 289182 443
127308 196489 383
263203 632940 509
843156 990658 507
87631 936238 525
204953 469159 449
33159 454946 449
9721 40940 324
781301 959980 525
70600 105504 351
99871 349065 443
15835 192316 383
149667 399094 443
224574 355195 443
122554 184354 383
232343 396033 441
690046 835708 504
404919 621878 470
198374 612331 470
180601 571610 470
158653 220165 386
166035 216244 373
317716 924526 525
113173 301793 443
15193 247585 443
5164 39877 324
3281 296641 443
24710 32875 308
20664 37547 324
351760 466550 449
75595 756923 509
795606 906310 525
23459 99287 351
319054 434257 449
125410 527876 470
544524 911095 525
756879 782205 468
190384 761182 509
254646 338223 407
67268 251651 443
13064 35273 311
4447 30650 308
219879 268793 443
15594 863075 525
13707 577215 470
77416 269215 443
45917 267508 443
203300 368163 443
143410 970706 525
266508 994013 525
219957 623805 470
499788 992265 525
382449 522665 470
111 4672 238
7630 11979 268
659082 902432 525
359027 635265 509
899894 992518 507
79953 119032 354
288623 839664 525
452065 641433 509
309122 416205 449
22259 125471 354
434444 787619 509
23226 265046 443
28895 577598 470
20911 967102 525
89093 434656 449
106038 546360 470
9212 50435 324
93303 149108 375
136294 444657 449
290597 340289 384
744796 794563 468
215233 677088 509
167909 386890 443
502608 772156 509
813995 819580 450
159967 204939 370
431687 580450 470
20156 131955 354
297863 528893 470
112588 155353 375
64629 823252 509
303783 415294 449
235451 651940 509
7077 21254 279
389506 972862 525
13003 313173 443
312114 980764 525
3921 585959 470
409714 481925 449
45434 89477 351
852072 859194 419
906694 958144 507
60593 218366 386
404436 495076 449
235337 758879 509
82770 159508 383
44433 149036 375
139347 440521 449
602097 648982 509
382851 528237 470
140826 316515 443
27678 132035 354
8271 198341 383
261733 266855 407
481298 678469 509
85458 116330 354
172398 298503 443
117882 147285 375
489193 813390 509
88751 89264 315
100960 933272 525
49435 119947 354
726784 915785 525
237912 993844 525
253605 610839 470
445506 597246 470
2248 279035 443
425370 538988 470
688413 935261 525
21502 41761 324
707352 825469 468
479954 932821 525
204478 635261 509
439243 699336 509
15855 16334 253
162685 830699 509
807975 925575 525
199755 619448 470
300997 367828 441
678477 792750 504
142951 744879 509
176442 673857 509
611629 937658 525
11070 17900 279
