680235 463509 509
307768 914160 525
109567 31066 354
217018 511899 449
870889 411556 525
971630 870383 507
514991 536181 439
814509 293496 509
890747 342732 525
800827 97539 509
903405 727878 525
406116 647219 509
719608 731769 411
778843 922832 525
739820 339020 509
572732 269943 470
964803 690652 525
695843 614045 509
606968 419756 470
970774 629562 525
949085 64025 525
361060 606247 470
750454 667804 504
121400 946456 525
713651 126761 509
85064 655369 509
22243 62604 340
993914 126795 525
782259 671383 504
864713 269468 525
877519 505673 525
960621 208289 525
987661 900989 507
388804 13612 443
919999 361832 525
320005 805568 509
877915 842055 432
392474 118138 443
136729 557871 470
830940 915463 525
323558 183601 443
495462 418265 444
869756 493583 525
383772 622836 470
664711 993905 525
861821 587557 525
169572 886668 525
978584 958388 458
188812 206804 360
451937 991192 525
447205 905615 525
273033 276328 358
569364 730846 509
426418 441358 400
969691 722465 525
736855 303042 509
380108 185580 443
757049 742731 424
493483 649983 509
484233 965938 525
911775 601494 525
128753 618608 470
961339 119482 525
596548 601556 403
763443 649853 504
31549 815615 509
993014 65724 525
95098 937799 525
674477 574656 509
316897 327303 384
491003 737644 509
378851 233467 441
923983 459435 525
260415 695650 509
345217 901765 525
342011 891059 525
578412 753781 509
787928 206142 509
286117 808243 509
2194 661015 509
932634 399894 525
493663 945899 525
224647 140766 386
740754 475825 509
812221 134521 509
105393 450342 449
901851 523011 525
356847 909488 525
588627 295041 470
321690 376910 441
727732 390476 509
20816 282867 443
375653 505748 449
808371 844843 525
563782 688134 509
242348 303601 407
834690 513652 509
708308 871457 525
963317 199257 525
869515 221473 525
603705 647402 509
663791 586722 509
95140 673329 509
806663 495509 509
812948 223498 509
765561 14514 509
119665 29268 354
125296 214051 383
408664 548152 470
566222 209717 470
652902 99662 509
521174 846583 525
612447 157392 470
119282 131341 344
674798 871482 525
501690 312569 449
762066 719674 424
96637 219862 386
422705 65007 449
854337 400131 525
386311 422414 449
90326 695115 509
39960 693970 509
280669 680401 509
620895 706898 509
603127 499536 470
223564 105034 386
768698 143554 509
165296 556021 470
607565 639203 509
352950 946142 525
755385 363051 509
746278 960733 525
498383 903266 525
49328 120387 354
1051 768864 509
209337 733214 509
376862 648211 509
238952 473789 449
870212 111125 525
152064 574804 470
176599 868491 525
122247 424550 449
457372 682072 509
31953 45898 324
104283 649947 509
714709 378322 509
405132 248774 441
190060 498467 449
17794 572805 470
